<?xml version="1.0" encoding="UTF-8" standalone="no"?>
<!-- Created with Inkscape (http://www.inkscape.org/) -->

<svg
   width="145.82413mm"
   height="141.08116mm"
   viewBox="0 0 145.82413 141.08116"
   version="1.1"
   id="svg5"
   inkscape:version="1.1.2 (0a00cf5339, 2022-02-04)"
   sodipodi:docname="logo-white.svg"
   xmlns:inkscape="http://www.inkscape.org/namespaces/inkscape"
   xmlns:sodipodi="http://sodipodi.sourceforge.net/DTD/sodipodi-0.dtd"
   xmlns="http://www.w3.org/2000/svg"
   xmlns:svg="http://www.w3.org/2000/svg">
  <sodipodi:namedview
     id="namedview7"
     pagecolor="#ffffff"
     bordercolor="#666666"
     borderopacity="1.0"
     inkscape:pageshadow="2"
     inkscape:pageopacity="0.0"
     inkscape:pagecheckerboard="0"
     inkscape:document-units="mm"
     showgrid="false"
     fit-margin-top="0"
     fit-margin-left="0"
     fit-margin-right="0"
     fit-margin-bottom="0"
     inkscape:zoom="1.0998546"
     inkscape:cx="-90.466503"
     inkscape:cy="226.39356"
     inkscape:window-width="2556"
     inkscape:window-height="1401"
     inkscape:window-x="0"
     inkscape:window-y="18"
     inkscape:window-maximized="1"
     inkscape:current-layer="g157" />
  <defs
     id="defs2" />
  <g
     inkscape:label="Layer 1"
     inkscape:groupmode="layer"
     id="layer1"
     transform="translate(-39.296132,-20.776379)">
    <g
       id="g157"
       transform="matrix(0.26458333,0,0,0.26458333,32.382112,109.45029)">
      <g
         id="g767"
         transform="translate(169.42348,-66.489336)"
         style="fill:#ffffff">
        <g
           id="g378"
           inkscape:transform-center-y="43.963649"
           style="fill:#ffffff">
	<g
   id="g376"
   style="fill:#ffffff">
		<path
   d="m 132.281,264.564 c 51.24,0 92.931,-41.681 92.931,-92.918 0,-50.18 -87.094,-164.069 -90.803,-168.891 L 132.281,0 130.153,2.773 c -3.704,4.813 -90.802,118.71 -90.802,168.882 10e-4,51.228 41.691,92.909 92.93,92.909 z"
   id="path374"
   style="fill:#ffffff" />

	</g>

</g>
        <g
           id="g414"
           inkscape:transform-center-y="54.088782"
           style="fill:#ffffff">
	<g
   id="g412"
   style="fill:#ffffff">
		<path
   d="m 132.281,264.564 c 51.24,0 92.931,-41.681 92.931,-92.918 0,-50.18 -87.094,-164.069 -90.803,-168.891 L 132.281,0 130.153,2.773 c -3.704,4.813 -90.802,118.71 -90.802,168.882 10e-4,51.228 41.691,92.909 92.93,92.909 z"
   id="path410"
   style="fill:#ffffff" />

	</g>

</g>
        <g
           id="g420"
           inkscape:transform-center-y="54.088782"
           style="fill:#ffffff">
	<g
   id="g418"
   style="fill:#ffffff">
		<path
   d="m 132.281,264.564 c 51.24,0 92.931,-41.681 92.931,-92.918 0,-50.18 -87.094,-164.069 -90.803,-168.891 L 132.281,0 130.153,2.773 c -3.704,4.813 -90.802,118.71 -90.802,168.882 10e-4,51.228 41.691,92.909 92.93,92.909 z"
   id="path416"
   style="fill:#ffffff" />

	</g>

</g>
        <g
           id="g732"
           inkscape:transform-center-y="15.895021"
           transform="rotate(72,132.2815,-20.39915)"
           inkscape:transform-center-x="39.022621"
           style="fill:#ffffff">
	<g
   id="g730"
   style="fill:#ffffff">
		<path
   d="m 132.281,264.564 c 51.24,0 92.931,-41.681 92.931,-92.918 0,-50.18 -87.094,-164.069 -90.803,-168.891 L 132.281,0 130.153,2.773 c -3.704,4.813 -90.802,118.71 -90.802,168.882 10e-4,51.228 41.691,92.909 92.93,92.909 z"
   id="path728"
   style="fill:#ffffff" />

	</g>

</g>
        <g
           id="g738"
           inkscape:transform-center-y="-35.025615"
           transform="rotate(144,132.2815,-20.39915)"
           inkscape:transform-center-x="28.768178"
           style="fill:#ffffff">
	<g
   id="g736"
   style="fill:#ffffff">
		<path
   d="m 132.281,264.564 c 51.24,0 92.931,-41.681 92.931,-92.918 0,-50.18 -87.094,-164.069 -90.803,-168.891 L 132.281,0 130.153,2.773 c -3.704,4.813 -90.802,118.71 -90.802,168.882 10e-4,51.228 41.691,92.909 92.93,92.909 z"
   id="path734"
   style="fill:#ffffff" />

	</g>

</g>
        <g
           id="g744"
           inkscape:transform-center-y="-35.025482"
           transform="rotate(-144,132.2815,-20.399149)"
           inkscape:transform-center-x="-28.767067"
           style="fill:#ffffff">
	<g
   id="g742"
   style="fill:#ffffff">
		<path
   d="m 132.281,264.564 c 51.24,0 92.931,-41.681 92.931,-92.918 0,-50.18 -87.094,-164.069 -90.803,-168.891 L 132.281,0 130.153,2.773 c -3.704,4.813 -90.802,118.71 -90.802,168.882 10e-4,51.228 41.691,92.909 92.93,92.909 z"
   id="path740"
   style="fill:#ffffff" />

	</g>

</g>
        <g
           id="g102"
           inkscape:transform-center-y="15.894671"
           transform="rotate(-72,132.2815,-20.399146)"
           inkscape:transform-center-x="-39.022554"
           style="fill:#ffffff">
	<g
   id="g100"
   style="fill:#ffffff">
		<path
   d="m 132.281,264.564 c 51.24,0 92.931,-41.681 92.931,-92.918 0,-50.18 -87.094,-164.069 -90.803,-168.891 L 132.281,0 130.153,2.773 c -3.704,4.813 -90.802,118.71 -90.802,168.882 10e-4,51.228 41.691,92.909 92.93,92.909 z"
   id="path98"
   style="fill:#ffffff" />

	</g>

</g>
      </g>
      <g
         id="g104">
</g>
      <g
         id="g106">
</g>
      <g
         id="g108">
</g>
      <g
         id="g110">
</g>
      <g
         id="g112">
</g>
      <g
         id="g114">
</g>
      <g
         id="g116">
</g>
      <g
         id="g118">
</g>
      <g
         id="g120">
</g>
      <g
         id="g122">
</g>
      <g
         id="g124">
</g>
      <g
         id="g126">
</g>
      <g
         id="g128">
</g>
      <g
         id="g130">
</g>
      <g
         id="g132">
</g>
    </g>
  </g>
</svg>
